waveform.vcd
$date
    Oct  2, 2025  16:54:04
$end
$version
    TOOL:	ncsim(64)	15.20-s058
$end
$timescale
    1 ps
$end

$scope module lfsr4_tb $end
$var reg       1 !    rst  $end
$var reg       1 "    clk  $end
$var reg       4 #    data_out [3:0] $end

$scope module dut $end
$var wire      1 $    clk  $end
$var wire      1 %    rst  $end
$var wire      1 &    data_out [3] $end
$var wire      1 '    data_out [2] $end
$var wire      1 (    data_out [1] $end
$var wire      1 )    data_out [0] $end
$var wire      1 *    FE_PHN0_rst  $end
$var wire      1 +    n_0  $end
$var wire      1 ,    n_1  $end
$upscope $end

$upscope $end

$enddefinitions $end
$dumpvars
1!
0"
b1 #
0$
1%
0&
0'
0(
1)
1*
0+
0,
$end
#1000
1"
1$
#2000
0"
0$
#3000
0!
0%
0*
1+
#4000
1"
1$
0)
1(
b10 #
#5000
0"
0$
#6000
1"
1$
1'
0(
b100 #
1,
#7000
0"
0$
#8000
1"
1$
1)
1&
0'
b1001 #
#9000
0"
0$
#10000
1"
1$
0&
1(
b11 #
0,
#11000
0"
0$
#12000
1"
1$
0)
1'
b110 #
1,
#13000
0"
0$
#14000
1"
1$
1)
1&
0(
b1101 #
0,
#15000
0"
0$
#16000
1"
1$
0)
0'
1(
b1010 #
1,
#17000
0"
0$
#18000
1"
1$
1)
0&
1'
0(
b101 #
#19000
0"
0$
#20000
1"
1$
1&
0'
1(
b1011 #
#21000
0"
0$
#22000
1"
1$
0&
1'
b111 #
#23000
0"
0$
#24000
1"
1$
1&
b1111 #
0,
#25000
0"
0$
#26000
1"
1$
0)
b1110 #
#27000
0"
0$
#28000
1"
1$
0(
b1100 #
#29000
0"
0$
#30000
1"
1$
0'
b1000 #
1,
#31000
0"
0$
#32000
1"
1$
1)
0&
b1 #
0,
#33000
0"
0$
#34000
1"
1$
0)
1(
b10 #
#35000
0"
0$
#36000
1"
1$
1'
0(
b100 #
1,
#37000
0"
0$
#38000
1"
1$
1)
1&
0'
b1001 #
#39000
0"
0$
#40000
1"
1$
0&
1(
b11 #
0,
#41000
0"
0$
#42000
1"
1$
0)
1'
b110 #
1,
